{
  "id": "l5r5e-world-tails",
  "title": "The Knotted Tails",
  "description": "<p>- The Knotted Tails, official adventure in english and french for Legend of the Five Rings 5th Edition.</p>\n<p>- Les Queues Nou&eacute;es, aventure officielle en anglais et fran&ccedil;ais pour la L&eacute;gende des Cinq Anneaux 5eme Edition.</p>",
  "url": "https://gitlab.com/teaml5r/l5r5e-world-tails",
  "readme": "https://gitlab.com/teaml5r/l5r5e-world-tails/-/blob/master/README.md",
  "license": "https://gitlab.com/teaml5r/l5r5e-world-tails/-/blob/master/LICENSE.md",
  "manifest": "https://gitlab.com/teaml5r/l5r5e-world-tails/-/raw/master/world/world.json",
  "download": "https://gitlab.com/teaml5r/l5r5e-world-tails/-/jobs/artifacts/v1.0.2/raw/l5r5e-world-tails.zip?job=build",
  "version": "1.0.2",
  "coreVersion": "10",
  "compatibility": {
    "minimum": 10,
    "verified": "10"
  },
  "authors": [
    {
      "name": "Vlyan",
      "discord": "Vlyan#6771",
      "url": "https://ko-fi.com/vlyan"
    },
    {
      "name": "Carter",
      "discord": "Carter#2703",
      "url": "https://fr.tipeee.com/carter-foundryvtt"
    }
  ],
  "system": "l5r5e"
}